Data Manipulation with dplyr
…
# Load packages
library(readr)
library(dplyr)

# Read in data
ydat <- read_csv(file="data/brauer2007_tidy.csv")

# Display the data
ydat

# Optionally, bring up the data in a viewer window
# View(ydat)

## # A tibble: 198,430 x 7
##    symbol systematic_name nutrient  rate expression
##     <chr>           <chr>    <chr> <dbl>      <dbl>
##  1   SFB2         YNL049C  Glucose  0.05      -0.24
##  2   <NA>         YNL095C  Glucose  0.05       0.28
##  3   QRI7         YDL104C  Glucose  0.05      -0.02
##  4   CFT2         YLR115W  Glucose  0.05      -0.33
##  5   SSO2         YMR183C  Glucose  0.05       0.05
##  6   PSP2         YML017W  Glucose  0.05      -0.69
##  7   RIB2         YOL066C  Glucose  0.05      -0.55
##  8  VMA13         YPR036W  Glucose  0.05      -0.75
##  9   EDC3         YEL015W  Glucose  0.05      -0.24
## 10   VPS5         YOR069W  Glucose  0.05      -0.16
## # ... with 198,420 more rows, and 2 more variables: bp <chr>, mf <chr>
…
!=: Not equal to

>, >=: Greater than, greater than or equal to

<, <=: Less than, less than or equal to

Let’s try it out. For this to work you have to have already loaded the dplyr package. Let’s take a look at LEU1, a gene involved in leucine synthesis.

# First, make sure you've loaded the dplyr package
library(dplyr)

# Look at a single gene involved in leucine synthesis pathway
filter(ydat, symbol == "LEU1")

## # A tibble: 36 x 7
##    symbol systematic_name nutrient  rate expression                   bp
##     <chr>           <chr>    <chr> <dbl>      <dbl>                <chr>
##  1   LEU1         YGL009C  Glucose  0.05      -1.12 leucine biosynthesis
##  2   LEU1         YGL009C  Glucose  0.10      -0.77 leucine biosynthesis
##  3   LEU1         YGL009C  Glucose  0.15      -0.67 leucine biosynthesis
##  4   LEU1         YGL009C  Glucose  0.20      -0.59 leucine biosynthesis
##  5   LEU1         YGL009C  Glucose  0.25      -0.20 leucine biosynthesis
##  6   LEU1         YGL009C  Glucose  0.30       0.03 leucine biosynthesis
##  7   LEU1         YGL009C  Ammonia  0.05      -0.76 leucine biosynthesis
##  8   LEU1         YGL009C  Ammonia  0.10      -1.17 leucine biosynthesis
##  9   LEU1         YGL009C  Ammonia  0.15      -1.20 leucine biosynthesis
## 10   LEU1         YGL009C  Ammonia  0.20      -1.02 leucine biosynthesis
## # ... with 26 more rows, and 1 more variables: mf <chr>

# Optionally, bring that result up in a View window
# View(filter(ydat, symbol == "LEU1"))

# Look at multiple genes
filter(ydat, symbol=="LEU1" | symbol=="ADH2")

## # A tibble: 72 x 7
##    symbol systematic_name nutrient  rate expression                   bp
##     <chr>           <chr>    <chr> <dbl>      <dbl>                <chr>
##  1   LEU1         YGL009C  Glucose  0.05      -1.12 leucine biosynthesis
##  2   ADH2         YMR303C  Glucose  0.05       6.28        fermentation*
##  3   LEU1         YGL009C  Glucose  0.10      -0.77 leucine biosynthesis
##  4   ADH2         YMR303C  Glucose  0.10       5.81        fermentation*
##  5   LEU1         YGL009C  Glucose  0.15      -0.67 leucine biosynthesis
##  6   ADH2         YMR303C  Glucose  0.15       5.64        fermentation*
##  7   LEU1         YGL009C  Glucose  0.20      -0.59 leucine biosynthesis
##  8   ADH2         YMR303C  Glucose  0.20       5.10        fermentation*
##  9   LEU1         YGL009C  Glucose  0.25      -0.20 leucine biosynthesis
## 10   ADH2         YMR303C  Glucose  0.25       1.89        fermentation*
## # ... with 62 more rows, and 1 more variables: mf <chr>
…
# Write that out to disk
write_csv(leudat, "leucinedata.csv")

Note that this is different than saving your entire workspace to an Rdata file, which would contain all the objects we’ve created (weight, ydat, leudat, etc).

select()

The filter() function allows you to return only certain rows matching a condition. The select() function returns only certain columns. The first argument is the data, and subsequent arguments are the columns you want.

# Select just the symbol and systematic_name
select(ydat, symbol, systematic_name)

## # A tibble: 198,430 x 2
##    symbol systematic_name
##     <chr>           <chr>
##  1   SFB2         YNL049C
##  2   <NA>         YNL095C
##  3   QRI7         YDL104C
##  4   CFT2         YLR115W
##  5   SSO2         YMR183C
##  6   PSP2         YML017W
##  7   RIB2         YOL066C
##  8  VMA13         YPR036W
##  9   EDC3         YEL015W
## 10   VPS5         YOR069W
## # ... with 198,420 more rows

# Alternatively, just remove columns. Remove the bp and mf columns.
select(ydat, -bp, -mf)

## # A tibble: 198,430 x 5
##    symbol systematic_name nutrient  rate expression
##     <chr>           <chr>    <chr> <dbl>      <dbl>
##  1   SFB2         YNL049C  Glucose  0.05      -0.24
##  2   <NA>         YNL095C  Glucose  0.05       0.28
##  3   QRI7         YDL104C  Glucose  0.05      -0.02
##  4   CFT2         YLR115W  Glucose  0.05      -0.33
##  5   SSO2         YMR183C  Glucose  0.05       0.05
##  6   PSP2         YML017W  Glucose  0.05      -0.69
##  7   RIB2         YOL066C  Glucose  0.05      -0.55
##  8  VMA13         YPR036W  Glucose  0.05      -0.75
##  9   EDC3         YEL015W  Glucose  0.05      -0.24
## 10   VPS5         YOR069W  Glucose  0.05      -0.16
## # ... with 198,420 more rows

# Notice that the original data doesn't change!
ydat

## # A tibble: 198,430 x 7
##    symbol systematic_name nutrient  rate expression
##     <chr>           <chr>    <chr> <dbl>      <dbl>
##  1   SFB2         YNL049C  Glucose  0.05      -0.24
##  2   <NA>         YNL095C  Glucose  0.05       0.28
##  3   QRI7         YDL104C  Glucose  0.05      -0.02
##  4   CFT2         YLR115W  Glucose  0.05      -0.33
##  5   SSO2         YMR183C  Glucose  0.05       0.05
##  6   PSP2         YML017W  Glucose  0.05      -0.69
##  7   RIB2         YOL066C  Glucose  0.05      -0.55
##  8  VMA13         YPR036W  Glucose  0.05      -0.75
##  9   EDC3         YEL015W  Glucose  0.05      -0.24
## 10   VPS5         YOR069W  Glucose  0.05      -0.16
## # ... with 198,420 more rows, and 2 more variables: bp <chr>, mf <chr>

Notice above how the original data doesn’t change. We’re selecting out only certain columns of interest and throwing away columns we don’t care about. If we wanted to keep this data, we would need to reassign the result of the select() operation to a new object. Let’s make a new object called nogo that does not contain the GO annotations. Notice again how the original data is unchanged.

# create a new dataset without the go annotations.
nogo <- select(ydat, -bp, -mf)
nogo

## # A tibble: 198,430 x 5
##    symbol systematic_name nutrient  rate expression
##     <chr>           <chr>    <chr> <dbl>      <dbl>
##  1   SFB2         YNL049C  Glucose  0.05      -0.24
##  2   <NA>         YNL095C  Glucose  0.05       0.28
##  3   QRI7         YDL104C  Glucose  0.05      -0.02
##  4   CFT2         YLR115W  Glucose  0.05      -0.33
##  5   SSO2         YMR183C  Glucose  0.05       0.05
##  6   PSP2         YML017W  Glucose  0.05      -0.69
##  7   RIB2         YOL066C  Glucose  0.05      -0.55
##  8  VMA13         YPR036W  Glucose  0.05      -0.75
##  9   EDC3         YEL015W  Glucose  0.05      -0.24
## 10   VPS5         YOR069W  Glucose  0.05      -0.16
## # ... with 198,420 more rows
…
## # A tibble: 6 x 5
##   symbol systematic_name  nutrient  rate expression
##    <chr>           <chr>     <chr> <dbl>      <dbl>
## 1   LEU1         YGL009C   Glucose  0.05      -1.12
## 2   LEU1         YGL009C   Ammonia  0.05      -0.76
## 3   LEU1         YGL009C Phosphate  0.05      -0.81
## 4   LEU1         YGL009C   Sulfate  0.05      -1.57
## 5   LEU1         YGL009C   Leucine  0.05       3.84
## 6   LEU1         YGL009C    Uracil  0.05      -2.07

# Notice how the original data is unchanged - still have all 7 columns
ydat

## # A tibble: 198,430 x 7
##    symbol systematic_name nutrient  rate expression
##     <chr>           <chr>    <chr> <dbl>      <dbl>
##  1   SFB2         YNL049C  Glucose  0.05      -0.24
##  2   <NA>         YNL095C  Glucose  0.05       0.28
##  3   QRI7         YDL104C  Glucose  0.05      -0.02
##  4   CFT2         YLR115W  Glucose  0.05      -0.33
##  5   SSO2         YMR183C  Glucose  0.05       0.05
##  6   PSP2         YML017W  Glucose  0.05      -0.69
##  7   RIB2         YOL066C  Glucose  0.05      -0.55
##  8  VMA13         YPR036W  Glucose  0.05      -0.75
##  9   EDC3         YEL015W  Glucose  0.05      -0.24
## 10   VPS5         YOR069W  Glucose  0.05      -0.16
## # ... with 198,420 more rows, and 2 more variables: bp <chr>, mf <chr>

mutate()

The mutate() function adds new columns to the data. Remember, it doesn’t actually modify the data frame you’re operating on, and the result is transient unless you assign it to a new object or reassign it back to itself (generally, not always a good practice).

The expression level reported here is the \(log_2\) of the sample signal divided by the signal in the reference channel, where the reference RNA for all samples was taken from the glucose-limited chemostat grown at a dilution rate of 0.25 \(h^{-1}\). Let’s mutate this data to add a new variable called “signal” that’s the actual raw signal ratio instead of the log-transformed signal.

mutate(nogo, signal=2^expression)

Mutate has a nice little feature too in that it’s “lazy.” You can mutate and add one variable, then continue mutating to add more variables based on that variable. Let’s make another column that’s the square root of the signal ratio.

mutate(nogo, signal=2^expression, sigsr=sqrt(signal))

## # A tibble: 198,430 x 7
##    symbol systematic_name nutrient  rate expression signal sigsr
##     <chr>           <chr>    <chr> <dbl>      <dbl>  <dbl> <dbl>
##  1   SFB2         YNL049C  Glucose  0.05      -0.24  0.847 0.920
##  2   <NA>         YNL095C  Glucose  0.05       0.28  1.214 1.102
##  3   QRI7         YDL104C  Glucose  0.05      -0.02  0.986 0.993
##  4   CFT2         YLR115W  Glucose  0.05      -0.33  0.796 0.892
##  5   SSO2         YMR183C  Glucose  0.05       0.05  1.035 1.017
##  6   PSP2         YML017W  Glucose  0.05      -0.69  0.620 0.787
##  7   RIB2         YOL066C  Glucose  0.05      -0.55  0.683 0.826
##  8  VMA13         YPR036W  Glucose  0.05      -0.75  0.595 0.771
##  9   EDC3         YEL015W  Glucose  0.05      -0.24  0.847 0.920
## 10   VPS5         YOR069W  Glucose  0.05      -0.16  0.895 0.946
## # ... with 198,420 more rows
…
arrange()

The arrange() function does what it sounds like. It takes a data frame or tbl and arranges (or sorts) by column(s) of interest. The first argument is the data, and subsequent arguments are columns to sort on. Use the desc() function to arrange by descending.

# arrange by gene symbol
arrange(ydat, symbol)

## # A tibble: 198,430 x 7
##    symbol systematic_name nutrient  rate expression                   bp
##     <chr>           <chr>    <chr> <dbl>      <dbl>                <chr>
##  1   AAC1         YMR056C  Glucose  0.05       1.50 aerobic respiration*
##  2   AAC1         YMR056C  Glucose  0.10       1.54 aerobic respiration*
##  3   AAC1         YMR056C  Glucose  0.15       1.16 aerobic respiration*
##  4   AAC1         YMR056C  Glucose  0.20       1.04 aerobic respiration*
##  5   AAC1         YMR056C  Glucose  0.25       0.84 aerobic respiration*
##  6   AAC1         YMR056C  Glucose  0.30       0.01 aerobic respiration*
##  7   AAC1         YMR056C  Ammonia  0.05       0.80 aerobic respiration*
##  8   AAC1         YMR056C  Ammonia  0.10       1.47 aerobic respiration*
##  9   AAC1         YMR056C  Ammonia  0.15       0.97 aerobic respiration*
## 10   AAC1         YMR056C  Ammonia  0.20       0.76 aerobic respiration*
## # ... with 198,420 more rows, and 1 more variables: mf <chr>

# arrange by expression (default: increasing)
arrange(ydat, expression)

## # A tibble: 198,430 x 7
##    symbol systematic_name  nutrient  rate expression
##     <chr>           <chr>     <chr> <dbl>      <dbl>
##  1   SUL1         YBR294W Phosphate  0.05      -6.50
##  2   SUL1         YBR294W Phosphate  0.10      -6.34
##  3   ADH2         YMR303C Phosphate  0.10      -6.15
##  4   ADH2         YMR303C Phosphate  0.30      -6.04
##  5   ADH2         YMR303C Phosphate  0.25      -5.89
##  6   SUL1         YBR294W    Uracil  0.05      -5.55
##  7   SFC1         YJR095W Phosphate  0.20      -5.52
##  8   JEN1         YKL217W Phosphate  0.30      -5.44
##  9   MHT1         YLL062C Phosphate  0.05      -5.36
## 10   SFC1         YJR095W Phosphate  0.25      -5.35
## # ... with 198,420 more rows, and 2 more variables: bp <chr>, mf <chr>

# arrange by decreasing expression
arrange(ydat, desc(expression))

## # A tibble: 198,430 x 7
##    symbol systematic_name  nutrient  rate expression
##     <chr>           <chr>     <chr> <dbl>      <dbl>
##  1   GAP1         YKR039W   Ammonia  0.05       6.64
##  2   DAL5         YJR152W   Ammonia  0.05       6.64
##  3   GAP1         YKR039W   Ammonia  0.10       6.64
##  4   DAL5         YJR152W   Ammonia  0.10       6.64
##  5   DAL5         YJR152W   Ammonia  0.15       6.64
##  6   DAL5         YJR152W   Ammonia  0.20       6.64
##  7   DAL5         YJR152W   Ammonia  0.25       6.64
##  8   DAL5         YJR152W   Ammonia  0.30       6.64
##  9   GIT1         YCR098C Phosphate  0.05       6.64
## 10   PHM6         YDR281C Phosphate  0.05       6.64
## # ... with 198,420 more rows, and 2 more variables: bp <chr>, mf <chr>
…
# The number of distinct gene symbols in the data 
summarize(ydat, n_distinct(symbol))

## # A tibble: 1 x 1
##   `n_distinct(symbol)`
##                  <int>
## 1                 4211

group_by()

We saw that summarize() isn’t that useful on its own. Neither is group_by() All this does is takes an existing data frame and coverts it into a grouped data frame where operations are performed by group.

ydat

## # A tibble: 198,430 x 7
##    symbol systematic_name nutrient  rate expression
##     <chr>           <chr>    <chr> <dbl>      <dbl>
##  1   SFB2         YNL049C  Glucose  0.05      -0.24
##  2   <NA>         YNL095C  Glucose  0.05       0.28
##  3   QRI7         YDL104C  Glucose  0.05      -0.02
##  4   CFT2         YLR115W  Glucose  0.05      -0.33
##  5   SSO2         YMR183C  Glucose  0.05       0.05
##  6   PSP2         YML017W  Glucose  0.05      -0.69
##  7   RIB2         YOL066C  Glucose  0.05      -0.55
##  8  VMA13         YPR036W  Glucose  0.05      -0.75
##  9   EDC3         YEL015W  Glucose  0.05      -0.24
## 10   VPS5         YOR069W  Glucose  0.05      -0.16
## # ... with 198,420 more rows, and 2 more variables: bp <chr>, mf <chr>

group_by(ydat, nutrient)

## # A tibble: 198,430 x 7
## # Groups:   nutrient [6]
##    symbol systematic_name nutrient  rate expression
##     <chr>           <chr>    <chr> <dbl>      <dbl>
##  1   SFB2         YNL049C  Glucose  0.05      -0.24
##  2   <NA>         YNL095C  Glucose  0.05       0.28
##  3   QRI7         YDL104C  Glucose  0.05      -0.02
##  4   CFT2         YLR115W  Glucose  0.05      -0.33
##  5   SSO2         YMR183C  Glucose  0.05       0.05
##  6   PSP2         YML017W  Glucose  0.05      -0.69
##  7   RIB2         YOL066C  Glucose  0.05      -0.55
##  8  VMA13         YPR036W  Glucose  0.05      -0.75
##  9   EDC3         YEL015W  Glucose  0.05      -0.24
## 10   VPS5         YOR069W  Glucose  0.05      -0.16
## # ... with 198,420 more rows, and 2 more variables: bp <chr>, mf <chr>

group_by(ydat, nutrient, rate)

## # A tibble: 198,430 x 7
## # Groups:   nutrient, rate [36]
##    symbol systematic_name nutrient  rate expression
##     <chr>           <chr>    <chr> <dbl>      <dbl>
##  1   SFB2         YNL049C  Glucose  0.05      -0.24
##  2   <NA>         YNL095C  Glucose  0.05       0.28
##  3   QRI7         YDL104C  Glucose  0.05      -0.02
##  4   CFT2         YLR115W  Glucose  0.05      -0.33
##  5   SSO2         YMR183C  Glucose  0.05       0.05
##  6   PSP2         YML017W  Glucose  0.05      -0.69
##  7   RIB2         YOL066C  Glucose  0.05      -0.55
##  8  VMA13         YPR036W  Glucose  0.05      -0.75
##  9   EDC3         YEL015W  Glucose  0.05      -0.24
## 10   VPS5         YOR069W  Glucose  0.05      -0.16
## # ... with 198,420 more rows, and 2 more variables: bp <chr>, mf <chr>

The real power comes in where group_by() and summarize() are used together. First, write the group_by() statement. Then wrap the result of that with a call to summarize().

# Get the mean expression for each gene
# group_by(ydat, symbol)
summarize(group_by(ydat, symbol), meanexp=mean(expression))

## # A tibble: 4,211 x 2
##    symbol  meanexp
##     <chr>    <dbl>
##  1   AAC1  0.52889
##  2   AAC3 -0.21629
##  3  AAD10  0.43833
##  4  AAD14 -0.07167
##  5  AAD16  0.24194
##  6   AAD4 -0.79167
##  7   AAD6  0.29028
##  8   AAH1  0.04611
##  9   AAP1 -0.00361
## 10  AAP1' -0.42139
## # ... with 4,201 more rows
…
## # A tibble: 5 x 7
##   symbol systematic_name nutrient  rate expression
##    <chr>           <chr>    <chr> <dbl>      <dbl>
## 1   KRE1         YNL322C   Uracil   0.3       0.28
## 2   MTL1         YGR023W   Uracil   0.3       0.27
## 3   KRE9         YJL174W   Uracil   0.3       0.43
## 4   UTH1         YKR042W   Uracil   0.3       0.19
## 5   <NA>         YOL111C   Uracil   0.3       0.04
## # ... with 2 more variables: bp <chr>, mf <chr>

Let’s use one of the dplyr verbs.

filter(ydat, nutrient=="Leucine")

## # A tibble: 33,178 x 7
##    symbol systematic_name nutrient  rate expression
##     <chr>           <chr>    <chr> <dbl>      <dbl>
##  1   SFB2         YNL049C  Leucine  0.05       0.18
##  2   <NA>         YNL095C  Leucine  0.05       0.16
##  3   QRI7         YDL104C  Leucine  0.05      -0.30
##  4   CFT2         YLR115W  Leucine  0.05      -0.27
##  5   SSO2         YMR183C  Leucine  0.05      -0.59
##  6   PSP2         YML017W  Leucine  0.05      -0.17
##  7   RIB2         YOL066C  Leucine  0.05      -0.02
##  8  VMA13         YPR036W  Leucine  0.05      -0.11
##  9   EDC3         YEL015W  Leucine  0.05       0.12
## 10   VPS5         YOR069W  Leucine  0.05      -0.20
## # ... with 33,168 more rows, and 2 more variables: bp <chr>, mf <chr>

ydat %>% filter(nutrient=="Leucine")

## # A tibble: 33,178 x 7
##    symbol systematic_name nutrient  rate expression
##     <chr>           <chr>    <chr> <dbl>      <dbl>
##  1   SFB2         YNL049C  Leucine  0.05       0.18
##  2   <NA>         YNL095C  Leucine  0.05       0.16
##  3   QRI7         YDL104C  Leucine  0.05      -0.30
##  4   CFT2         YLR115W  Leucine  0.05      -0.27
##  5   SSO2         YMR183C  Leucine  0.05      -0.59
##  6   PSP2         YML017W  Leucine  0.05      -0.17
##  7   RIB2         YOL066C  Leucine  0.05      -0.02
##  8  VMA13         YPR036W  Leucine  0.05      -0.11
##  9   EDC3         YEL015W  Leucine  0.05       0.12
## 10   VPS5         YOR069W  Leucine  0.05      -0.20
## # ... with 33,168 more rows, and 2 more variables: bp <chr>, mf <chr>
…
