RNA-Seq Homework
…
Finally, load the annotation data (best to do this with dplyr’s read_csv() because it’s pretty big).

library(readr)
library(dplyr)
anno <- read_csv("data/annotables_grch38.csv")
anno

## # A tibble: 66,531 x 9
##            ensgene entrez   symbol   chr     start       end strand
##              <chr>  <int>    <chr> <chr>     <int>     <int>  <int>
##  1 ENSG00000000003   7105   TSPAN6     X 100627109 100639991     -1
##  2 ENSG00000000005  64102     TNMD     X 100584802 100599885      1
##  3 ENSG00000000419   8813     DPM1    20  50934867  50958555     -1
##  4 ENSG00000000457  57147    SCYL3     1 169849631 169894267     -1
##  5 ENSG00000000460  55732 C1orf112     1 169662007 169854080      1
##  6 ENSG00000000938   2268      FGR     1  27612064  27635277     -1
##  7 ENSG00000000971   3075      CFH     1 196651878 196747504      1
##  8 ENSG00000001036   2519    FUCA2     6 143494811 143511690     -1
##  9 ENSG00000001084   2729     GCLC     6  53497341  53616970     -1
## 10 ENSG00000001167   4800     NFYA     6  41072945  41099976      1
## # ... with 66,521 more rows, and 2 more variables: biotype <chr>,
## #   description <chr>
…
