Count-Based Differential Expression Analysis of RNA-seq Data
…
First, let’s load the readr, dplyr, and ggplot2 packages. Then let’s import our data with readr’s read_csv() function (note: not read.csv()). Let’s read in the actual count data and the experimental metadata.

library(readr)
library(dplyr)
library(ggplot2)

mycounts <- read_csv("data/airway_scaledcounts.csv")
metadata <-  read_csv("data/airway_metadata.csv")

Now, take a look at each.

mycounts

## # A tibble: 38,694 x 9
##            ensgene SRR1039508 SRR1039509 SRR1039512 SRR1039513 SRR1039516
##              <chr>      <dbl>      <dbl>      <dbl>      <dbl>      <dbl>
##  1 ENSG00000000003        723        486        904        445       1170
##  2 ENSG00000000005          0          0          0          0          0
##  3 ENSG00000000419        467        523        616        371        582
##  4 ENSG00000000457        347        258        364        237        318
##  5 ENSG00000000460         96         81         73         66        118
##  6 ENSG00000000938          0          0          1          0          2
##  7 ENSG00000000971       3413       3916       6000       4308       6424
##  8 ENSG00000001036       2328       1714       2640       1381       2165
##  9 ENSG00000001084        670        372        692        448        917
## 10 ENSG00000001167        426        295        531        178        740
## # ... with 38,684 more rows, and 3 more variables: SRR1039517 <dbl>,
## #   SRR1039520 <dbl>, SRR1039521 <dbl>
…
Let’s look for differential gene expression. Note: this analysis is for demonstration only. NEVER do differential expression analysis this way!

Let’s start with an exercise.

Exercise 1

If we look at our metadata, we see that the control samples are SRR1039508, SRR1039512, SRR1039516, and SRR1039520. This bit of code will take the mycounts data, mutate() it to add a column called controlmean, then select() only the gene name and this newly created column, and assigning the result to a new object called meancounts. (Hint: mycounts %>% mutate(...) %>% select(...))

meancounts <- mycounts %>% 
  mutate(controlmean = (SRR1039508+SRR1039512+SRR1039516+SRR1039520)/4) %>% 
  select(ensgene, controlmean)
meancounts

## # A tibble: 38,694 x 2
##            ensgene controlmean
##              <chr>       <dbl>
##  1 ENSG00000000003      900.75
##  2 ENSG00000000005        0.00
##  3 ENSG00000000419      520.50
##  4 ENSG00000000457      339.75
##  5 ENSG00000000460       97.25
##  6 ENSG00000000938        0.75
##  7 ENSG00000000971     5219.00
##  8 ENSG00000001036     2327.00
##  9 ENSG00000001084      755.75
## 10 ENSG00000001167      527.75
## # ... with 38,684 more rows

Build off of this code, mutate() it once more (prior to the select()) function, to add another column called treatedmean that takes the mean of the expression values of the treated samples. Then select() only the ensgene, controlmean and treatedmean columns, assigning it to a new object called meancounts.

## # A tibble: 38,694 x 3
##            ensgene controlmean treatedmean
##              <chr>       <dbl>       <dbl>
##  1 ENSG00000000003      900.75       658.0
##  2 ENSG00000000005        0.00         0.0
##  3 ENSG00000000419      520.50       546.0
##  4 ENSG00000000457      339.75       316.5
##  5 ENSG00000000460       97.25        78.8
##  6 ENSG00000000938        0.75         0.0
##  7 ENSG00000000971     5219.00      6687.5
##  8 ENSG00000001036     2327.00      1785.8
##  9 ENSG00000001084      755.75       578.0
## 10 ENSG00000001167      527.75       348.2
## # ... with 38,684 more rows
…
We can find candidate differentially expressed genes by looking for genes with a large change between control and dex-treated samples. We usually look at the \(log_2\) of the fold change, because this has better mathematical properties. On the absolute scale, upregulation goes from 1 to infinity, while downregulation is bounded by 0 and 1. On the log scale, upregulation goes from 0 to infinity, and downregulation goes from 0 to negative infinity. So, let’s mutate our meancounts object to add a log2foldchange column. Optionally pipe this to View().

meancounts %>% mutate(log2fc=log2(treatedmean/controlmean))

## # A tibble: 38,694 x 4
##            ensgene controlmean treatedmean log2fc
##              <chr>       <dbl>       <dbl>  <dbl>
##  1 ENSG00000000003      900.75       658.0 -0.453
##  2 ENSG00000000005        0.00         0.0    NaN
##  3 ENSG00000000419      520.50       546.0  0.069
##  4 ENSG00000000457      339.75       316.5 -0.102
##  5 ENSG00000000460       97.25        78.8 -0.304
##  6 ENSG00000000938        0.75         0.0   -Inf
##  7 ENSG00000000971     5219.00      6687.5  0.358
##  8 ENSG00000001036     2327.00      1785.8 -0.382
##  9 ENSG00000001084      755.75       578.0 -0.387
## 10 ENSG00000001167      527.75       348.2 -0.600
## # ... with 38,684 more rows

There are a couple of “weird” results. Namely, the NaN (“not a number”) and -Inf (negative infinity) results. The NaN is returned when you divide by zero and try to take the log. The -Inf is returned when you try to take the log of zero. It turns out that there are a lot of genes with zero expression. Let’s filter our meancounts data, mutate it to add the \(log_2(Fold Change)\), and when we’re happy with what we see, let’s reassign the result of that operation back to the meancounts object. (Note: this is destructive. If you’re coding interactively like we’re doing now, before you do this it’s good practice to see what the result of the operation is prior to making the reassignment.)

# Try running the code first, prior to reassigning.
meancounts <- meancounts %>% 
  filter(controlmean>0 & treatedmean>0) %>% 
  mutate(log2fc=log2(treatedmean/controlmean))
meancounts

## # A tibble: 21,817 x 4
##            ensgene controlmean treatedmean log2fc
##              <chr>       <dbl>       <dbl>  <dbl>
##  1 ENSG00000000003       900.8       658.0 -0.453
##  2 ENSG00000000419       520.5       546.0  0.069
##  3 ENSG00000000457       339.8       316.5 -0.102
##  4 ENSG00000000460        97.2        78.8 -0.304
##  5 ENSG00000000971      5219.0      6687.5  0.358
##  6 ENSG00000001036      2327.0      1785.8 -0.382
##  7 ENSG00000001084       755.8       578.0 -0.387
##  8 ENSG00000001167       527.8       348.2 -0.600
##  9 ENSG00000001460       226.8       185.5 -0.290
## 10 ENSG00000001461      3169.5      2701.2 -0.231
## # ... with 21,807 more rows

A common threshold used for calling something differentially expressed is a \(log_2(FoldChange)\) of greater than 2 or less than -2. Let’s filter the dataset both ways to see how many genes are up or down-regulated.

meancounts %>% filter(log2fc>2)

## # A tibble: 250 x 4
##            ensgene controlmean treatedmean log2fc
##              <chr>       <dbl>       <dbl>  <dbl>
##  1 ENSG00000004799      270.50     1429.25   2.40
##  2 ENSG00000006788        2.75       19.75   2.84
##  3 ENSG00000008438        0.50        2.75   2.46
##  4 ENSG00000011677        0.50        2.25   2.17
##  5 ENSG00000015413        0.50        3.00   2.58
##  6 ENSG00000015592        0.50        2.25   2.17
##  7 ENSG00000046653      323.00     2126.50   2.72
##  8 ENSG00000070190        0.50        3.00   2.58
##  9 ENSG00000070388        3.50       17.50   2.32
## 10 ENSG00000074317        0.25        1.75   2.81
## # ... with 240 more rows

meancounts %>% filter(log2fc<(-2))

## # A tibble: 367 x 4
##            ensgene controlmean treatedmean log2fc
##              <chr>       <dbl>       <dbl>  <dbl>
##  1 ENSG00000015520       32.00        6.00  -2.42
##  2 ENSG00000019186       26.50        1.75  -3.92
##  3 ENSG00000025423      295.00       54.25  -2.44
##  4 ENSG00000028277       88.25       22.00  -2.00
##  5 ENSG00000029559        1.25        0.25  -2.32
##  6 ENSG00000049246      405.00       93.00  -2.12
##  7 ENSG00000049247        1.25        0.25  -2.32
##  8 ENSG00000052344        2.25        0.25  -3.17
##  9 ENSG00000054179        3.00        0.25  -3.58
## 10 ENSG00000064201       30.00        6.50  -2.21
## # ... with 357 more rows

In total, we’ve got 617 differentially expressed genes, in either direction.

Exercise 3

Look up help on ?inner_join or Google around for help for using dplyr’s inner_join() to join two tables by a common column/key. You downloaded annotables_grch38.csv from the data downloads page. Load this data with read_csv() into an object called anno. Pipe it to View() or click on the object in the Environment pane to view the entire dataset. This table links the unambiguous Ensembl gene ID to things like the gene symbol, full gene name, location, Entrez gene ID, etc.

anno <- read_csv("data/annotables_grch38.csv")
anno

## # A tibble: 66,531 x 9
##            ensgene entrez   symbol   chr     start       end strand
##              <chr>  <int>    <chr> <chr>     <int>     <int>  <int>
##  1 ENSG00000000003   7105   TSPAN6     X 100627109 100639991     -1
##  2 ENSG00000000005  64102     TNMD     X 100584802 100599885      1
##  3 ENSG00000000419   8813     DPM1    20  50934867  50958555     -1
##  4 ENSG00000000457  57147    SCYL3     1 169849631 169894267     -1
##  5 ENSG00000000460  55732 C1orf112     1 169662007 169854080      1
##  6 ENSG00000000938   2268      FGR     1  27612064  27635277     -1
##  7 ENSG00000000971   3075      CFH     1 196651878 196747504      1
##  8 ENSG00000001036   2519    FUCA2     6 143494811 143511690     -1
##  9 ENSG00000001084   2729     GCLC     6  53497341  53616970     -1
## 10 ENSG00000001167   4800     NFYA     6  41072945  41099976      1
## # ... with 66,521 more rows, and 2 more variables: biotype <chr>,
## #   description <chr>

Take our newly created meancounts object, and arrange() it descending by the absolute value (abs()) of the log2fc column. The first few rows should look like this:

## # A tibble: 3 x 4
##           ensgene controlmean treatedmean log2fc
##             <chr>       <dbl>       <dbl>  <dbl>
## 1 ENSG00000179593        0.25       129.5   9.02
## 2 ENSG00000277196        0.50        63.8   6.99
## 3 ENSG00000109906       14.75       808.8   5.78

Continue on that pipeline, and inner_join() it to the anno data by the ensgene column. Either assign it to a temporary object or pipe the whole thing to View to take a look. What do you notice? Would you trust these results? Why or why not?

## # A tibble: 21,995 x 12
##            ensgene controlmean treatedmean log2fc    entrez     symbol
##              <chr>       <dbl>       <dbl>  <dbl>     <int>      <chr>
##  1 ENSG00000179593        0.25      129.50   9.02       247    ALOX15B
##  2 ENSG00000277196        0.50       63.75   6.99 102724788 AC007325.2
##  3 ENSG00000109906       14.75      808.75   5.78      7704     ZBTB16
##  4 ENSG00000128285       12.75        0.25  -5.67      2847      MCHR1
##  5 ENSG00000171819        9.00      427.25   5.57     10218    ANGPTL7
##  6 ENSG00000137673        0.25       10.25   5.36      4316       MMP7
##  7 ENSG00000241713        0.25        7.25   4.86     58496     LY6G5B
##  8 ENSG00000277399        0.50       13.25   4.73    440435     GPR179
##  9 ENSG00000118729       25.50        1.00  -4.67       845      CASQ2
## 10 ENSG00000127954       34.25      826.75   4.59     79689     STEAP4
## # ... with 21,985 more rows, and 6 more variables: chr <chr>, start <int>,
## #   end <int>, strand <int>, biotype <chr>, description <chr>
…
Let’s look at our mycounts and metadata again.

mycounts

## # A tibble: 38,694 x 9
##            ensgene SRR1039508 SRR1039509 SRR1039512 SRR1039513 SRR1039516
##              <chr>      <dbl>      <dbl>      <dbl>      <dbl>      <dbl>
##  1 ENSG00000000003        723        486        904        445       1170
##  2 ENSG00000000005          0          0          0          0          0
##  3 ENSG00000000419        467        523        616        371        582
##  4 ENSG00000000457        347        258        364        237        318
##  5 ENSG00000000460         96         81         73         66        118
##  6 ENSG00000000938          0          0          1          0          2
##  7 ENSG00000000971       3413       3916       6000       4308       6424
##  8 ENSG00000001036       2328       1714       2640       1381       2165
##  9 ENSG00000001084        670        372        692        448        917
## 10 ENSG00000001167        426        295        531        178        740
## # ... with 38,684 more rows, and 3 more variables: SRR1039517 <dbl>,
## #   SRR1039520 <dbl>, SRR1039521 <dbl>
…
Getting results

Since we’ve got a fairly simple design (single factor, two groups, treated versus control), we can get results out of the object simply by calling the results() function on the DESeqDataSet that has been run through the pipeline. The help page for ?results and the vignette both have extensive documentation about how to pull out the results for more complicated models (multi-factor experiments, specific contrasts, interaction terms, time courses, etc.).

Note two things:

We’re passing the tidy=TRUE argument, which tells DESeq2 to output the results table with rownames as a first column called ‘row.’ If we didn’t do this, the gene names would be stuck in the row.names, and we’d have a hard time filtering or otherwise using that column.

This returns a regular old data frame. Try displaying it to the screen by just typing res. You’ll see that it doesn’t print as nicly as the data we read in with read_csv. We can add this “special” attribute to the raw data returned which just tells R to print it nicely.

res <- results(dds, tidy=TRUE)
res <- as_tibble(res)
res

## # A tibble: 38,694 x 7
##                row baseMean log2FoldChange lfcSE   stat pvalue  padj
##              <chr>    <dbl>          <dbl> <dbl>  <dbl>  <dbl> <dbl>
##  1 ENSG00000000003  747.194        -0.3507 0.168 -2.085 0.0371 0.163
##  2 ENSG00000000005    0.000             NA    NA     NA     NA    NA
##  3 ENSG00000000419  520.134         0.2061 0.101  2.040 0.0413 0.176
##  4 ENSG00000000457  322.665         0.0245 0.145  0.169 0.8658 0.962
##  5 ENSG00000000460   87.683        -0.1471 0.257 -0.573 0.5669 0.816
##  6 ENSG00000000938    0.319        -1.7323 3.494 -0.496 0.6200    NA
##  7 ENSG00000000971 5760.148         0.4593 0.234  1.960 0.0500 0.201
##  8 ENSG00000001036 2025.392        -0.2282 0.125 -1.826 0.0678 0.247
##  9 ENSG00000001084  652.173        -0.2530 0.203 -1.249 0.2116 0.495
## 10 ENSG00000001167  411.684        -0.5337 0.229 -2.333 0.0197 0.105
## # ... with 38,684 more rows

Either click on the res object in the environment pane or pass it to View() to bring it up in a data viewer. Why do you think so many of the adjusted p-values are missing (NA)? Try looking at the baseMean column, which tells you the average overall expression of this gene, and how that relates to whether or not the p-value was missing. Go to the DESeq2 vignette and read the section about “Independent filtering and multiple testing.”

The goal of independent filtering is to filter out those tests from the procedure that have no, or little chance of showing significant evidence, without even looking at the statistical result. Genes with very low counts are not likely to see significant differences typically due to high dispersion. This results in increased detection power at the same experiment-wide type I error [i.e., better FDRs].

Exercise 4

Using a %>%, arrange the results by the adjusted p-value.

## # A tibble: 38,694 x 7
##                row baseMean log2FoldChange  lfcSE  stat   pvalue     padj
##              <chr>    <dbl>          <dbl>  <dbl> <dbl>    <dbl>    <dbl>
##  1 ENSG00000152583      955           4.37 0.2371  18.4 8.87e-76 1.34e-71
##  2 ENSG00000179094      743           2.86 0.1756  16.3 7.97e-60 6.04e-56
##  3 ENSG00000116584     2278          -1.03 0.0651 -15.9 5.80e-57 2.93e-53
##  4 ENSG00000189221     2384           3.34 0.2124  15.7 9.24e-56 3.50e-52
##  5 ENSG00000120129     3441           2.97 0.2037  14.6 5.31e-48 1.61e-44
##  6 ENSG00000148175    13494           1.43 0.1004  14.2 6.93e-46 1.75e-42
##  7 ENSG00000178695     2685          -2.49 0.1781 -14.0 2.11e-44 4.56e-41
##  8 ENSG00000109906      440           5.93 0.4282  13.8 1.40e-43 2.65e-40
##  9 ENSG00000134686     2934           1.44 0.1058  13.6 3.88e-42 6.53e-39
## 10 ENSG00000101347    14135           3.85 0.2849  13.5 1.28e-41 1.94e-38
## # ... with 38,684 more rows
…
