Essential Statistics with R
…
Import & inspect

First, let’s load the dplyr and readr libraries.

library(readr)
library(dplyr)

If you see a warning that looks like this: Error in library(dplyr) : there is no package called 'dplyr' (or similar with readr), then you don’t have the package installed correctly. See the setup page.

Now, let’s actually load the data. When we load data we assign it to a variable just like any other, and we can choose a name for that data. Since we’re going to be referring to this data a lot, let’s give it a short easy name to type. I’m going to call it nh. Once we’ve loaded it we can type the name of the object itself (nh) to see it printed to the screen.

nh <- read_csv(file="data/nhanes.csv")
nh

## # A tibble: 5,000 x 32
##       id Gender   Age    Race    Education MaritalStatus
##    <int>  <chr> <int>   <chr>        <chr>         <chr>
##  1 62163   male    14   Asian         <NA>          <NA>
##  2 62172 female    43   Black  High School  NeverMarried
##  3 62174   male    80   White College Grad       Married
##  4 62174   male    80   White College Grad       Married
##  5 62175   male     5   White         <NA>          <NA>
##  6 62176 female    34   White College Grad       Married
##  7 62178   male    80   White  High School       Widowed
##  8 62180   male    35   White College Grad       Married
##  9 62186 female    17   Black         <NA>          <NA>
## 10 62190 female    15 Mexican         <NA>          <NA>
## # ... with 4,990 more rows, and 26 more variables:
## #   RelationshipStatus <chr>, Insured <chr>, Income <int>, Poverty <dbl>,
## #   HomeRooms <int>, HomeOwn <chr>, Work <chr>, Weight <dbl>,
## #   Height <dbl>, BMI <dbl>, Pulse <int>, BPSys <int>, BPDia <int>,
## #   Testosterone <dbl>, HDLChol <dbl>, TotChol <dbl>, Diabetes <chr>,
## #   DiabetesAge <int>, nPregnancies <int>, nBabies <int>,
## #   SleepHrsNight <int>, PhysActive <chr>, PhysActiveDays <int>,
## #   AlcoholDay <int>, AlcoholYear <int>, SmokingStatus <chr>
…
