Advanced Data Visualization Homework
…
Note, the code is available by hitting the “Code” button above each expected output, but try not to use it unless you’re stuck.

# Load required libraries
library(readr)
library(dplyr)
library(ggplot2)

# Read data from file
ydat <- read_csv("data/brauer2007_tidy.csv")

# Display the data
ydat

## # A tibble: 198,430 x 7
##    symbol systematic_name nutrient  rate expression
##     <chr>           <chr>    <chr> <dbl>      <dbl>
##  1   SFB2         YNL049C  Glucose  0.05      -0.24
##  2   <NA>         YNL095C  Glucose  0.05       0.28
##  3   QRI7         YDL104C  Glucose  0.05      -0.02
##  4   CFT2         YLR115W  Glucose  0.05      -0.33
##  5   SSO2         YMR183C  Glucose  0.05       0.05
##  6   PSP2         YML017W  Glucose  0.05      -0.69
##  7   RIB2         YOL066C  Glucose  0.05      -0.55
##  8  VMA13         YPR036W  Glucose  0.05      -0.75
##  9   EDC3         YEL015W  Glucose  0.05      -0.24
## 10   VPS5         YOR069W  Glucose  0.05      -0.16
## # ... with 198,420 more rows, and 2 more variables: bp <chr>, mf <chr>
…
