…
2. How many distinct genes are there where we know what process the gene is involved in but we don't know what it does? _Hint:_ 3 pipes; `filter` where `bp!="biological process unknown" & mf=="molecular function unknown"`, and after `select`ing columns of interest, pipe the output to `distinct()`. The answer should be **737**, and here are a few:


```
## # A tibble: 737 × 3
##    symbol                                                              bp
##     <chr>                                                           <chr>
## 1    SFB2                                           ER to Golgi transport
## 2    EDC3                           deadenylylation-independent decapping
## 3    PER1                                   response to unfolded protein*
## 4   PEX25                         peroxisome organization and biogenesis*
## 5    BNI5                                                    cytokinesis*
## 6   CSN12 adaptation to pheromone during conjugation with cellular fusion
## 7   SEC39                                               secretory pathway
## 8    ABC1                                         ubiquinone biosynthesis
## 9   PRP46                          nuclear mRNA splicing, via spliceosome
## 10   MAM3                      mitochondrion organization and biogenesis*
## # ... with 727 more rows, and 1 more variables: mf <chr>
```

3. When the growth rate is restricted to 0.05 by limiting Glucose, which biological processes are the most upregulated? Show a sorted list with the most upregulated BPs on top, displaying the biological process and the average expression of all genes in that process rounded to two digits. _Hint:_ 5 pipes: `filter`, `group_by`, `summarize`, `mutate`, `arrange`.


```
## # A tibble: 881 × 2
##                                               bp meanexp
##                                            <chr>   <dbl>
## 1                                  fermentation*    6.28
## 2                               glyoxylate cycle    5.29
## 3  oxygen and reactive oxygen species metabolism    5.04
## 4                            fumarate transport*    5.03
## 5                       acetyl-CoA biosynthesis*    4.32
## 6                                gluconeogenesis    3.64
## 7                      fatty acid beta-oxidation    3.57
## 8                              lactate transport    3.48
## 9                           carnitine metabolism    3.30
## 10                           alcohol metabolism*    3.25
## # ... with 871 more rows
```

4. Group the data by limiting nutrient (primarily) then by biological process. Get the average expression for all genes annotated with each process, separately for each limiting nutrient, where the growth rate is restricted to 0.05. Arrange the result to show the most upregulated processes on top. The initial result will look like the result below. Pipe this output to a `View()` statement. What's going on? Why didn't the `arrange()` work? _Hint:_ 5 pipes: `filter`, `group_by`, `summarize`, `arrange`, `View`.


```
## Source: local data frame [5,257 x 3]
## Groups: nutrient [6]
## 
##     nutrient                                            bp meanexp
##        <chr>                                         <chr>   <dbl>
## 1    Ammonia                          allantoate transport    6.64
## 2    Ammonia                         amino acid transport*    6.64
## 3  Phosphate               glycerophosphodiester transport    6.64
## 4    Glucose                                 fermentation*    6.28
## 5    Ammonia                           allantoin transport    5.56
## 6    Glucose                              glyoxylate cycle    5.29
## 7    Ammonia                           proline catabolism*    5.14
## 8    Ammonia                                urea transport    5.14
## 9    Glucose oxygen and reactive oxygen species metabolism    5.04
## 10   Glucose                           fumarate transport*    5.03
## # ... with 5,247 more rows
```
…
```r
ydat %>% 
  group_by(nutrient, bp) %>% 
  summarize(r=cor(rate, expression), ngenes=n_distinct(symbol))
```

```
## Warning in cor(c(0.05, 0.05, 0.05, 0.05, 0.05, 0.05, 0.05, 0.05, 0.05,
## 0.05, : the standard deviation is zero
```

```
## Source: local data frame [5,286 x 4]
## Groups: nutrient [?]
## 
##    nutrient                                      bp       r ngenes
##       <chr>                                   <chr>   <dbl>  <int>
## 1   Ammonia             'de novo' IMP biosynthesis*  0.3125      8
## 2   Ammonia  'de novo' pyrimidine base biosynthesis -0.0482      3
## 3   Ammonia 'de novo' pyrimidine base biosynthesis*  0.1670      4
## 4   Ammonia       35S primary transcript processing  0.5080     13
## 5   Ammonia      35S primary transcript processing*  0.4240     30
## 6   Ammonia                    acetate biosynthesis  0.4677      1
## 7   Ammonia                      acetate metabolism  0.9291      1
## 8   Ammonia                     acetate metabolism* -0.6855      1
## 9   Ammonia                 acetyl-CoA biosynthesis -0.8512      1
## 10  Ammonia   acetyl-CoA biosynthesis from pyruvate  0.0951      1
## # ... with 5,276 more rows
```
…
