Count-Based Differential Expression Analysis of RNA-seq Data
…
First, let’s load the readr, dplyr, and ggplot2 libraries, and import our data like we’ve always done with read_csv() (note: not read.csv()). Let’s read in the actual count data and the experimental metadata.

library(readr)
library(dplyr)
library(ggplot2)

rawcounts <- read_csv("data/airway_rawcounts.csv")
metadata <-  read_csv("data/airway_metadata.csv")

Now, take a look at each.

rawcounts

## # A tibble: 64,102 x 9
##            ensgene SRR1039508 SRR1039509 SRR1039512 SRR1039513 SRR1039516
##              <chr>      <int>      <int>      <int>      <int>      <int>
## 1  ENSG00000000003        679        448        873        408       1138
## 2  ENSG00000000005          0          0          0          0          0
## 3  ENSG00000000419        467        515        621        365        587
## 4  ENSG00000000457        260        211        263        164        245
## 5  ENSG00000000460         60         55         40         35         78
## 6  ENSG00000000938          0          0          2          0          1
## 7  ENSG00000000971       3251       3679       6177       4252       6721
## 8  ENSG00000001036       1433       1062       1733        881       1424
## 9  ENSG00000001084        519        380        595        493        820
## 10 ENSG00000001167        394        236        464        175        658
## # ... with 64,092 more rows, and 3 more variables: SRR1039517 <int>,
## #   SRR1039520 <int>, SRR1039521 <int>
…
Let’s look for differential gene expression. Note: this analysis is for demonstration only. NEVER do differential expression analysis this way!

Let’s start with an exercise.

EXERCISE 1

If we look at our metadata, we see that the control samples are SRR1039508, SRR1039512, SRR1039516, and SRR1039520. This bit of code will take the rawcounts data, mutate it to add a column called controlmean, then select only the gene name and this newly created column, and assigning the result to a new object called meancounts.

meancounts <- rawcounts %>% 
  mutate(controlmean = SRR1039508+SRR1039512+SRR1039516+SRR1039520) %>% 
  select(ensgene, controlmean)
meancounts

## # A tibble: 64,102 x 2
##            ensgene controlmean
##              <chr>       <int>
## 1  ENSG00000000003        3460
## 2  ENSG00000000005           0
## 3  ENSG00000000419        2092
## 4  ENSG00000000457        1001
## 5  ENSG00000000460         254
## 6  ENSG00000000938           3
## 7  ENSG00000000971       21325
## 8  ENSG00000001036        5949
## 9  ENSG00000001084        2630
## 10 ENSG00000001167        1876
## # ... with 64,092 more rows

Build off of this code, mutate it once more (prior to the select()) function, to add another column called treatedmean that takes the mean of the expression values of the treated samples. Then select only the ensgene, controlmean and treatedmean columns, assigning it to a new object called meancounts. It should look like this.

## # A tibble: 64,102 x 3
##            ensgene controlmean treatedmean
##              <chr>       <int>       <int>
## 1  ENSG00000000003        3460        2475
## 2  ENSG00000000005           0           0
## 3  ENSG00000000419        2092        2187
## 4  ENSG00000000457        1001         935
## 5  ENSG00000000460         254         213
## 6  ENSG00000000938           3           0
## 7  ENSG00000000971       21325       26953
## 8  ENSG00000001036        5949        4491
## 9  ENSG00000001084        2630        2291
## 10 ENSG00000001167        1876        1264
## # ... with 64,092 more rows
…
We can find candidate differentially expressed genes by looking for genes with a large change between control and dex-treated samples. We usually look at the \(log_2\) of the fold change, because this has better mathematical properties. On the absolute scale, upregulation goes from 1 to infinity, while downregulation is bounded by 0 and 1. On the log scale, upregulation goes from 0 to infinity, and downregulation goes from 0 to negative infinity. So, let’s mutate our meancounts object to add a log2foldchange column. Optionally pipe this to View().

meancounts %>% mutate(log2fc=log2(treatedmean/controlmean))

## # A tibble: 64,102 x 4
##            ensgene controlmean treatedmean  log2fc
##              <chr>       <int>       <int>   <dbl>
## 1  ENSG00000000003        3460        2475 -0.4833
## 2  ENSG00000000005           0           0     NaN
## 3  ENSG00000000419        2092        2187  0.0641
## 4  ENSG00000000457        1001         935 -0.0984
## 5  ENSG00000000460         254         213 -0.2540
## 6  ENSG00000000938           3           0    -Inf
## 7  ENSG00000000971       21325       26953  0.3379
## 8  ENSG00000001036        5949        4491 -0.4056
## 9  ENSG00000001084        2630        2291 -0.1991
## 10 ENSG00000001167        1876        1264 -0.5697
## # ... with 64,092 more rows

There are a couple of “weird” results. Namely, the NaN (“not a number”) and -Inf (negative infinity) results. The NaN is returned when you divide by zero and try to take the log. The -Inf is returned when you try to take the log of zero. It turns out that there are a lot of genes with zero expression. Let’s filter our meancounts data, mutate it to add the \(log_2(Fold Change)\), and when we’re happy with what we see, let’s reassign the result of that operation back to the meancounts object. (Note: this is destructive. If you’re coding interactively like we’re doing now, before you do this it’s good practice to see what the result of the operation is prior to making the reassignment.)

# Try running the code first, prior to reassigning.
meancounts <- meancounts %>% 
  filter(controlmean>0 & treatedmean>0) %>% 
  mutate(log2fc=log2(treatedmean/controlmean))
meancounts

## # A tibble: 27,450 x 4
##            ensgene controlmean treatedmean  log2fc
##              <chr>       <int>       <int>   <dbl>
## 1  ENSG00000000003        3460        2475 -0.4833
## 2  ENSG00000000419        2092        2187  0.0641
## 3  ENSG00000000457        1001         935 -0.0984
## 4  ENSG00000000460         254         213 -0.2540
## 5  ENSG00000000971       21325       26953  0.3379
## 6  ENSG00000001036        5949        4491 -0.4056
## 7  ENSG00000001084        2630        2291 -0.1991
## 8  ENSG00000001167        1876        1264 -0.5697
## 9  ENSG00000001460         832         673 -0.3060
## 10 ENSG00000001461       12451       10180 -0.2905
## # ... with 27,440 more rows

A common threshold used for calling something differentially expressed is a \(log_2(FoldChange)\) of greater than 2 or less than -2. Let’s filter the dataset both ways to see how many genes are up or down-regulated.

meancounts %>% filter(log2fc>2)

## # A tibble: 343 x 4
##            ensgene controlmean treatedmean log2fc
##              <chr>       <int>       <int>  <dbl>
## 1  ENSG00000004799        1074        5560   2.37
## 2  ENSG00000006788           9          73   3.02
## 3  ENSG00000008438           2          11   2.46
## 4  ENSG00000009950           3          15   2.32
## 5  ENSG00000015592           1           5   2.32
## 6  ENSG00000046653        1382        8244   2.58
## 7  ENSG00000060718         516        2177   2.08
## 8  ENSG00000067798        1064        4743   2.16
## 9  ENSG00000070388           6          40   2.74
## 10 ENSG00000078114           6          50   3.06
## # ... with 333 more rows

meancounts %>% filter(log2fc<(-2))

## # A tibble: 549 x 4
##            ensgene controlmean treatedmean log2fc
##              <chr>       <int>       <int>  <dbl>
## 1  ENSG00000002079          10           2  -2.32
## 2  ENSG00000004846         123          28  -2.14
## 3  ENSG00000005844           5           1  -2.32
## 4  ENSG00000006047           5           1  -2.32
## 5  ENSG00000013293        1823         228  -3.00
## 6  ENSG00000015520         134          23  -2.54
## 7  ENSG00000016391         613         134  -2.19
## 8  ENSG00000019186         111           5  -4.47
## 9  ENSG00000025423        1203         218  -2.46
## 10 ENSG00000027644           5           1  -2.32
## # ... with 539 more rows

In total, we’ve got 892 differentially expressed genes, in either direction.

EXERCISE 3

Go back and refresh your memory on using inner_join() to join two tables by a common column/key. You previously downloaded annotables_grch37.csv from the data downloads page. Load this data with read_csv() into an object called anno. Pipe it to View or click on the object in the Environment pane to view the entire dataset. This table links the unambiguous Ensembl gene ID to things like the gene symbol, full gene name, location, Entrez gene ID, etc.

anno <- read_csv("data/annotables_grch37.csv")
anno

## # A tibble: 67,416 x 9
##            ensgene entrez   symbol   chr     start       end strand
##              <chr>  <int>    <chr> <chr>     <int>     <int>  <int>
## 1  ENSG00000000003   7105   TSPAN6     X  99883667  99894988     -1
## 2  ENSG00000000005  64102     TNMD     X  99839799  99854882      1
## 3  ENSG00000000419   8813     DPM1    20  49551404  49575092     -1
## 4  ENSG00000000457  57147    SCYL3     1 169818772 169863408     -1
## 5  ENSG00000000460  55732 C1orf112     1 169631245 169823221      1
## 6  ENSG00000000938   2268      FGR     1  27938575  27961788     -1
## 7  ENSG00000000971   3075      CFH     1 196621008 196716634      1
## 8  ENSG00000001036   2519    FUCA2     6 143815948 143832827     -1
## 9  ENSG00000001084   2729     GCLC     6  53362139  53481768     -1
## 10 ENSG00000001167   4800     NFYA     6  41040684  41067715      1
## # ... with 67,406 more rows, and 2 more variables: biotype <chr>,
## #   description <chr>

Take our newly created meancounts object, and arrange it descending by the absolute value (abs()) of the log2fc column. The results should look like this:

## # A tibble: 27,450 x 4
##            ensgene controlmean treatedmean log2fc
##              <chr>       <int>       <int>  <dbl>
## 1  ENSG00000109906          22        2862   7.02
## 2  ENSG00000250978           6         411   6.10
## 3  ENSG00000128285          55           1  -5.78
## 4  ENSG00000260802           1          48   5.58
## 5  ENSG00000171819          38        1670   5.46
## 6  ENSG00000137673           1          41   5.36
## 7  ENSG00000127954          60        1797   4.90
## 8  ENSG00000249364           2          59   4.88
## 9  ENSG00000267339         222           8  -4.79
## 10 ENSG00000100033          15         375   4.64
## # ... with 27,440 more rows

Continue on that pipeline, and inner_join() it to the anno data by the ensgene column. Either assign it to a temporary object or pipe the whole thing to View to take a look. What do you notice? Would you trust these results? Why or why not?

## # A tibble: 29,034 x 12
##            ensgene controlmean treatedmean log2fc    entrez        symbol
##              <chr>       <int>       <int>  <dbl>     <int>         <chr>
## 1  ENSG00000109906          22        2862   7.02      7704        ZBTB16
## 2  ENSG00000250978           6         411   6.10        NA RP11-357D18.1
## 3  ENSG00000128285          55           1  -5.78      2847         MCHR1
## 4  ENSG00000260802           1          48   5.58    401613     LINC00890
## 5  ENSG00000171819          38        1670   5.46     10218       ANGPTL7
## 6  ENSG00000137673           1          41   5.36      4316          MMP7
## 7  ENSG00000127954          60        1797   4.90     79689        STEAP4
## 8  ENSG00000249364           2          59   4.88 101928858  RP11-434D9.1
## 9  ENSG00000267339         222           8  -4.79    148145     LINC00906
## 10 ENSG00000100033          15         375   4.64      5625         PRODH
## # ... with 29,024 more rows, and 6 more variables: chr <chr>, start <int>,
## #   end <int>, strand <int>, biotype <chr>, description <chr>
…
Let’s look at our rawcounts and metadata again.

rawcounts

## # A tibble: 64,102 x 9
##            ensgene SRR1039508 SRR1039509 SRR1039512 SRR1039513 SRR1039516
##              <chr>      <int>      <int>      <int>      <int>      <int>
## 1  ENSG00000000003        679        448        873        408       1138
## 2  ENSG00000000005          0          0          0          0          0
## 3  ENSG00000000419        467        515        621        365        587
## 4  ENSG00000000457        260        211        263        164        245
## 5  ENSG00000000460         60         55         40         35         78
## 6  ENSG00000000938          0          0          2          0          1
## 7  ENSG00000000971       3251       3679       6177       4252       6721
## 8  ENSG00000001036       1433       1062       1733        881       1424
## 9  ENSG00000001084        519        380        595        493        820
## 10 ENSG00000001167        394        236        464        175        658
## # ... with 64,092 more rows, and 3 more variables: SRR1039517 <int>,
## #   SRR1039520 <int>, SRR1039521 <int>
…
See those numbers in the “gutter” to the left of the ensgene or id columns? Those are technically the row names of the dataset. For example:

row.names(metadata)

## [1] "1" "2" "3" "4" "5" "6" "7" "8"

Notice how these don’t match the column names of the raw count data! Also, the gene ID is in a column called ensgene, which is not the same as row.names(rawcounts). There are other ways we could have imported the data where the row names were set as DESeq2 expects them, but I chose not to do this because such a dataset isn’t “tidy.” That is, you couldn’t do tidy-data operations like filtering, arranging, etc. when a variable is in a row name. But, this is how DESeq2 expects the data, and this is what we must provide. There’s a function (in base R) called data.frame that can construct a data frame from an existing data frame, but letting you specify which columns the row names are. Let’s create two new data frames where we specify which column contain our row names. Lets stick a RN on the end of the object name so we know the difference.

rawcounts

## # A tibble: 64,102 x 9
##            ensgene SRR1039508 SRR1039509 SRR1039512 SRR1039513 SRR1039516
##              <chr>      <int>      <int>      <int>      <int>      <int>
## 1  ENSG00000000003        679        448        873        408       1138
## 2  ENSG00000000005          0          0          0          0          0
## 3  ENSG00000000419        467        515        621        365        587
## 4  ENSG00000000457        260        211        263        164        245
## 5  ENSG00000000460         60         55         40         35         78
## 6  ENSG00000000938          0          0          2          0          1
## 7  ENSG00000000971       3251       3679       6177       4252       6721
## 8  ENSG00000001036       1433       1062       1733        881       1424
## 9  ENSG00000001084        519        380        595        493        820
## 10 ENSG00000001167        394        236        464        175        658
## # ... with 64,092 more rows, and 3 more variables: SRR1039517 <int>,
## #   SRR1039520 <int>, SRR1039521 <int>
…
Getting results

Since we’ve got a fairly simple design (single factor, two groups, treated versus control), we can get results out of the object simply by calling the results() function on the DESeqDataSet that has been run through the pipeline. The help page for ?results and the vignette both have extensive documentation about how to pull out the results for more complicated models (multi-factor experiments, specific contrasts, interaction terms, time courses, etc.).

Note two things:

We’re passing the tidy=TRUE argument, which tells DESeq2 to output the results table with rownames as a first column called ‘row.’ If we didn’t do this, the gene names would be stuck in the row.names, and we’d have a hard time filtering or otherwise using that column.

This returns a regular old data frame. Try displaying it to the screen by just typing res. You’ll see that it doesn’t print as nicly as the data we read in with read_csv. We can add this “special” attribute to the raw data returned which just tells R to print it nicely.

res <- results(dds, tidy=TRUE)
res <- tbl_df(res)
res

## # A tibble: 64,102 x 7
##                row baseMean log2FoldChange  lfcSE   stat pvalue  padj
##              <chr>    <dbl>          <dbl>  <dbl>  <dbl>  <dbl> <dbl>
## 1  ENSG00000000003  708.602        -0.3610 0.1651 -2.186 0.0288 0.135
## 2  ENSG00000000005    0.000             NA     NA     NA     NA    NA
## 3  ENSG00000000419  520.298         0.2004 0.0991  2.022 0.0431 0.179
## 4  ENSG00000000457  237.163         0.0332 0.1230  0.270 0.7874 0.927
## 5  ENSG00000000460   57.933        -0.1020 0.2615 -0.390 0.6964 0.889
## 6  ENSG00000000938    0.318        -0.1609 0.1774 -0.907 0.3645    NA
## 7  ENSG00000000971 5817.353         0.3971 0.2335  1.701 0.0890 0.292
## 8  ENSG00000001036 1282.106        -0.2364 0.1171 -2.018 0.0435 0.180
## 9  ENSG00000001084  609.892        -0.0272 0.2129 -0.128 0.8983 0.969
## 10 ENSG00000001167  369.343        -0.4563 0.1965 -2.322 0.0202 0.105
## # ... with 64,092 more rows

Either click on the res object in the environment pane or pass it to View() to bring it up in a data viewer. Why do you think so many of the adjusted p-values are missing (NA)? Try looking at the baseMean column, which tells you the average overall expression of this gene, and how that relates to whether or not the p-value was missing. Go to the DESeq2 vignette and read the section about “Independent filtering and multiple testing.”

EXERCISE 4

Using a %>%, arrange the results by the adjusted p-value.

## # A tibble: 64,102 x 7
##                row baseMean log2FoldChange  lfcSE  stat    pvalue
##              <chr>    <dbl>          <dbl>  <dbl> <dbl>     <dbl>
## 1  ENSG00000152583      997           4.29 0.1961  21.9 6.24e-106
## 2  ENSG00000148175    11194           1.43 0.0841  17.1  3.30e-65
## 3  ENSG00000179094      777           2.98 0.1886  15.8  2.28e-56
## 4  ENSG00000109906      385           5.14 0.3308  15.5  2.17e-54
## 5  ENSG00000134686     2738           1.37 0.0906  15.1  1.56e-51
## 6  ENSG00000125148     3656           2.13 0.1426  14.9  2.39e-50
## 7  ENSG00000120129     3409           2.76 0.1892  14.6  2.41e-48
## 8  ENSG00000189221     2342           3.04 0.2102  14.5  1.63e-47
## 9  ENSG00000178695     2650          -2.37 0.1702 -14.0  2.91e-44
## 10 ENSG00000101347    12703           3.41 0.2479  13.8  3.53e-43
## # ... with 64,092 more rows, and 1 more variables: padj <dbl>
…
How many are significant with an adjusted p-value <0.05? (Pipe to filter()).

## # A tibble: 2,852 x 15
##                row baseMean log2FoldChange  lfcSE  stat    pvalue
##              <chr>    <dbl>          <dbl>  <dbl> <dbl>     <dbl>
## 1  ENSG00000152583      997           4.29 0.1961  21.9 6.24e-106
## 2  ENSG00000148175    11194           1.43 0.0841  17.1  3.30e-65
## 3  ENSG00000179094      777           2.98 0.1886  15.8  2.28e-56
## 4  ENSG00000179094      777           2.98 0.1886  15.8  2.28e-56
## 5  ENSG00000109906      385           5.14 0.3308  15.5  2.17e-54
## 6  ENSG00000134686     2738           1.37 0.0906  15.1  1.56e-51
## 7  ENSG00000125148     3656           2.13 0.1426  14.9  2.39e-50
## 8  ENSG00000120129     3409           2.76 0.1892  14.6  2.41e-48
## 9  ENSG00000189221     2342           3.04 0.2102  14.5  1.63e-47
## 10 ENSG00000178695     2650          -2.37 0.1702 -14.0  2.91e-44
## # ... with 2,842 more rows, and 9 more variables: padj <dbl>,
## #   entrez <int>, symbol <chr>, chr <chr>, start <int>, end <int>,
## #   strand <int>, biotype <chr>, description <chr>
…
